{"meta": {"limit": 20, "next": "/api/v1/busline?limit=20&offset=20", "offset": 0, "previous": null, "total_count": 1067}, "objects": [{"company": {"id": 1, "name": "LOTAXI", "resource_uri": "/api/v1/company/1"}, "description": "Cruzeiro/Octogonal/Sudoeste/W3 Sul", "fee": 3.2, "id": 1, "line_number": "0.006", "resource_uri": "/api/v1/busline/1", "route_size": 40.49, "terminals": [{"address": null, "description": "CRUZEIRO NOVO", "id": 1, "resource_uri": "/api/v1/terminal/1"}], "via": "EPCB - ESTR. PARQ. CONTORNO DO BOSQUE"}, {"company": {"id": 2, "name": "CONDOR", "resource_uri": "/api/v1/company/2"}, "description": "SQS 616 (SQS 216-416)/W3 Sul-Esplanada", "fee": 3.2, "id": 2, "line_number": "0.007", "resource_uri": "/api/v1/busline/2", "route_size": 26.52, "terminals": [{"address": null, "description": "SQS 616", "id": 2, "resource_uri": "/api/v1/terminal/2"}], "via": "AV. L1 SUL"}, {"company": {"id": 2, "name": "CONDOR", "resource_uri": "/api/v1/company/2"}, "description": "Qd. 716 N/Esplanada (Aeroporto - CNB)", "fee": 3.2, "id": 3, "line_number": "0.011", "resource_uri": "/api/v1/busline/3", "route_size": 64.88, "terminals": [{"address": null, "description": "SCRN 716", "id": 3, "resource_uri": "/api/v1/terminal/3"}], "via": "VIA LIG. W3 NORTE/PONTE DO BRAGUETO"}, {"company": {"id": 3, "name": "COOTARDE", "resource_uri": "/api/v1/company/3"}, "description": "Circular Brazlândia (Vila São José-Expansão)", "fee": 1.5, "id": 4, "line_number": "0.012", "resource_uri": "/api/v1/busline/4", "route_size": 9.62, "terminals": [{"address": null, "description": "BRAZLÂNDIA", "id": 4, "resource_uri": "/api/v1/terminal/4"}], "via": "VIA SN2 - BRAZLÂNDIA"}, {"company": {"id": 3, "name": "COOTARDE", "resource_uri": "/api/v1/company/3"}, "description": "Circular Brazlândia (Vila São José-HRB-Expansão)", "fee": 1.5, "id": 5, "line_number": "0.013", "resource_uri": "/api/v1/busline/5", "route_size": 9.39, "terminals": [{"address": null, "description": "BRAZLÂNDIA", "id": 4, "resource_uri": "/api/v1/terminal/4"}], "via": "VIA S2 - BRAZLÂNDIA"}, {"company": {"id": 3, "name": "COOTARDE", "resource_uri": "/api/v1/company/3"}, "description": "Circular Brazlândia (Expansão da Vila São José)/Incra 08 e 06", "fee": 1.5, "id": 6, "line_number": "0.015", "resource_uri": "/api/v1/busline/6", "route_size": 39.64, "terminals": [{"address": null, "description": "BRAZLÂNDIA", "id": 4, "resource_uri": "/api/v1/terminal/4"}], "via": "VIA S2 - BRAZLÂNDIA"}, {"company": {"id": 4, "name": "CONDOR,LOTAXI", "resource_uri": "/api/v1/company/4"}, "description": "Qd 716 Norte (SQN 212/213)/ Esplanada(SMHS-SCS-SAS)", "fee": 3.2, "id": 7, "line_number": "0.016", "resource_uri": "/api/v1/busline/7", "route_size": 36.41, "terminals": [{"address": null, "description": "SCRN 716", "id": 3, "resource_uri": "/api/v1/terminal/3"}], "via": "VIA LIG. PONTE DO BRAGUETO/W3 NORTE"}, {"company": {"id": 5, "name": "COOPATAG", "resource_uri": "/api/v1/company/5"}, "description": "Santa Maria (Av. Santa Maria)/Gama Sul-Central-Oeste-Leste-Rodoviária", "fee": 1.5, "id": 8, "line_number": "0.020", "resource_uri": "/api/v1/busline/8", "route_size": 48.35, "terminals": [{"address": null, "description": "SANTA MARIA- (AC.119)", "id": 5, "resource_uri": "/api/v1/terminal/5"}], "via": "VIA CONT. QR 218/318 - SANTA MARIA"}, {"company": {"id": 2, "name": "CONDOR", "resource_uri": "/api/v1/company/2"}, "description": "SQS 616 (SQS216-416)/W3 Sul-L2 Norte (SDN)/W3 Norte-L2 Sul (SDN)", "fee": 3.2, "id": 9, "line_number": "0.022", "resource_uri": "/api/v1/busline/9", "route_size": 46.47, "terminals": [{"address": null, "description": "SQS 616", "id": 2, "resource_uri": "/api/v1/terminal/2"}], "via": "AV. L1 SUL"}, {"company": {"id": 4, "name": "CONDOR,LOTAXI", "resource_uri": "/api/v1/company/4"}, "description": "SQN 716 (SQN 212-213)/L2 Norte-W3 Sul (SDN)/L2 Sul-W3 Norte (SDN)", "fee": 3.2, "id": 10, "line_number": "0.023", "resource_uri": "/api/v1/busline/10", "route_size": 45.75, "terminals": [{"address": null, "description": "SCRN 716", "id": 3, "resource_uri": "/api/v1/terminal/3"}], "via": "AV. L1 SUL"}, {"company": {"id": 1, "name": "LOTAXI", "resource_uri": "/api/v1/company/1"}, "description": "Cruzeiro/Sudoeste/Esplanada (CNB)", "fee": 3.2, "id": 11, "line_number": "0.024", "resource_uri": "/api/v1/busline/11", "route_size": 42.0, "terminals": [{"address": null, "description": "CRUZEIRO NOVO", "id": 1, "resource_uri": "/api/v1/terminal/1"}], "via": "EPCB - ESTR. PARQ. CONTORNO DO BOSQUE"}, {"company": {"id": 6, "name": "LOTAXI,CONDOR", "resource_uri": "/api/v1/company/6"}, "description": "Qd. 716 Norte (SQN 212-213)/W3 Norte-Sul / Aeroporto", "fee": 3.2, "id": 12, "line_number": "0.030", "resource_uri": "/api/v1/busline/12", "route_size": 51.66, "terminals": [{"address": null, "description": "SCRN 716", "id": 3, "resource_uri": "/api/v1/terminal/3"}], "via": "VIA LIG. W3 NORTE/PONTE DO BRAGUETO"}, {"company": {"id": 4, "name": "CONDOR,LOTAXI", "resource_uri": "/api/v1/company/4"}, "description": "SQS616 (SQS 216-416)/W3 Sul-Norte (SQN 212-213)/L2 Norte-Sul/Esplanada", "fee": 3.2, "id": 13, "line_number": "0.031", "resource_uri": "/api/v1/busline/13", "route_size": 37.99, "terminals": [{"address": null, "description": "SQS 616", "id": 2, "resource_uri": "/api/v1/terminal/2"}], "via": "AV. L1 SUL"}, {"company": {"id": 2, "name": "CONDOR", "resource_uri": "/api/v1/company/2"}, "description": "SQS 616 (SQS 216-416)/L2 Sul-Norte (Esplanada)/W3 Norte-Sul", "fee": 3.2, "id": 14, "line_number": "0.032", "resource_uri": "/api/v1/busline/14", "route_size": 38.77, "terminals": [{"address": null, "description": "SQS 616", "id": 2, "resource_uri": "/api/v1/terminal/2"}], "via": "AV. L2 SUL"}, {"company": {"id": 4, "name": "CONDOR,LOTAXI", "resource_uri": "/api/v1/company/4"}, "description": "Qd.716 Norte(SQN 212-213)/W3 Norte -Sul/Octogonal (Parkshopping) / Telebrasília", "fee": 3.2, "id": 15, "line_number": "0.035", "resource_uri": "/api/v1/busline/15", "route_size": 56.21, "terminals": [{"address": null, "description": "SCRN 716", "id": 3, "resource_uri": "/api/v1/terminal/3"}], "via": "VIA LIG. W3 NORTE/PONTE DO BRAGUETO"}, {"company": {"id": 7, "name": "SÃO JOSÉ", "resource_uri": "/api/v1/company/7"}, "description": "Riacho Fundo I/Tagaguatinga Sul-Norte (Areal-SAMDU-QNL)", "fee": 2.0, "id": 16, "line_number": "0.038", "resource_uri": "/api/v1/busline/16", "route_size": 46.45, "terminals": [{"address": null, "description": "RIACHO FUNDO", "id": 6, "resource_uri": "/api/v1/terminal/6"}], "via": "AV. RIACHO FUNDO I SUL"}, {"company": {"id": 8, "name": "VIAÇÃO PLANETA", "resource_uri": "/api/v1/company/8"}, "description": "Setor \"O\" (Via -N2-MN2)/Taguatinga (Est.-Av. CentralTag. Shop)/Arniqueira-Est. A", "fee": 2.0, "id": 17, "line_number": "0.039", "resource_uri": "/api/v1/busline/17", "route_size": 67.47, "terminals": [{"address": null, "description": "SETOR P NORTE", "id": 7, "resource_uri": "/api/v1/terminal/7"}], "via": "VIA Q 6 - CEILÂNDIA"}, {"company": {"id": 9, "name": "VIAÇÃO PIONEIRA", "resource_uri": "/api/v1/company/9"}, "description": "Cond. Privê/Celândia (Via o4)/Taguatinga CentroÁguas Claras(Tag. Shopping)", "fee": 2.0, "id": 18, "line_number": "0.041", "resource_uri": "/api/v1/busline/18", "route_size": 47.58, "terminals": [{"address": null, "description": "SETOR \"O\"", "id": 8, "resource_uri": "/api/v1/terminal/8"}], "via": "VIA INT. CONDOMÍNIO PRIVÊ"}, {"company": {"id": 9, "name": "VIAÇÃO PIONEIRA", "resource_uri": "/api/v1/company/9"}, "description": "P Sul Taguatinga (Estádio-Av. Central-SAMDU N.)/QNG/Vicente Pires", "fee": 2.0, "id": 19, "line_number": "0.043", "resource_uri": "/api/v1/busline/19", "route_size": 54.87, "terminals": [{"address": null, "description": "SETOR P SUL", "id": 9, "resource_uri": "/api/v1/terminal/9"}], "via": "VIA EQNP 22/24"}, {"company": {"id": 9, "name": "VIAÇÃO PIONEIRA", "resource_uri": "/api/v1/company/9"}, "description": "Cond. Sol Nascente/ Setor O (Exp-M1)/ Tag. Centro (Estádio-Tag.Shop.)", "fee": 2.0, "id": 20, "line_number": "0.044", "resource_uri": "/api/v1/busline/20", "route_size": 42.59, "terminals": [{"address": null, "description": "COND. SOL NASCENTE", "id": 10, "resource_uri": "/api/v1/terminal/10"}], "via": "VIA LIG. TREM BÃO/TERMINAL - SOL NASCENTE"}]}